%YAML 1.1
%TAG !u! tag:unity3d.com,2011:
--- !u!114 &11400000
MonoBehaviour:
  m_ObjectHideFlags: 0
  m_CorrespondingSourceObject: {fileID: 0}
  m_PrefabInternal: {fileID: 0}
  m_GameObject: {fileID: 0}
  m_Enabled: 1
  m_EditorHideFlags: 0
  m_Script: {fileID: 11500000, guid: 0af7b72ece9a57c4d80e4d3266272909, type: 3}
  m_Name: EnemyModel2
  m_EditorClassIdentifier: 
  Speed: 2
  BulletSpeed: 4
  Views:
  - Name: Left
    Sprite: {fileID: 21300000, guid: dddf46e0007e86945b00dd163f502b52, type: 3}
  - Name: Up
    Sprite: {fileID: 21300000, guid: 24d1c1b43898f3142901bbe9ddc3235d, type: 3}
  - Name: Right
    Sprite: {fileID: 21300000, guid: e318c023932ff2a48a6ee62eb2af0352, type: 3}
  - Name: Down
    Sprite: {fileID: 21300000, guid: c640e51688da55949970ef030db49b9c, type: 3}
